mpirun: INFO: switching to OpenMPI runtime version 1.6.3
m 1000 n 1000 k 4000
Minimum time was 0.099804
mult_replicated:     passed
##IPM2v0.xx########################################################
#
# command   : ./ass1 1000 1000 4000     
# start     : Tue Apr 07 00:07:14 2015   host      : r911            
# stop      : Tue Apr 07 00:07:17 2015   wallclock : 3.57
# mpi_tasks : 16 on 1 nodes              %comm     : 37.48
# mem [GB]  : 0.92                       gflop/sec : 0.00
#
#           :       [total]        <avg>          min          max
# wallclock :         51.42         3.21         3.19         3.57 
# MPI       :         19.27         1.20         0.93         1.25 
# %wall     :
#   MPI     :                      37.57        26.12        39.06 
# #calls    :
#   MPI     :          3184          199          164          724
# mem [GB]  :          0.92         0.06         0.05         0.12 
#
###################################################################
###################################################################
# region    :'ipm_noregion'
#           :       [total]        <avg>          min          max
# wallclock :         51.42         3.21         3.19         3.57 
# MPI       :         19.27         1.20         0.93         1.25 
# %wall     :
#   MPI     :                      37.57        26.12        39.06 
# #calls    :
#   MPI     :          3184          199          164          724
# mem [GB]  :          0.92         0.06         0.05         0.12 
#
###################################################################
mpirun: INFO: switching to OpenMPI runtime version 1.6.3
m 4000 n 1000 k 1000
Minimum time was 0.096314
mult_replicated:     passed
##IPM2v0.xx########################################################
#
# command   : ./ass1 4000 1000 1000     
# start     : Tue Apr 07 00:07:18 2015   host      : r911            
# stop      : Tue Apr 07 00:07:21 2015   wallclock : 3.55
# mpi_tasks : 16 on 1 nodes              %comm     : 34.46
# mem [GB]  : 0.92                       gflop/sec : 0.00
#
#           :       [total]        <avg>          min          max
# wallclock :         50.53         3.16         3.10         3.55 
# MPI       :         17.41         1.09         0.78         1.12 
# %wall     :
#   MPI     :                      34.56        22.06        35.85 
# #calls    :
#   MPI     :          3184          199          164          724
# mem [GB]  :          0.92         0.06         0.05         0.12 
#
###################################################################
###################################################################
# region    :'ipm_noregion'
#           :       [total]        <avg>          min          max
# wallclock :         50.53         3.16         3.10         3.55 
# MPI       :         17.41         1.09         0.78         1.12 
# %wall     :
#   MPI     :                      34.56        22.06        35.85 
# #calls    :
#   MPI     :          3184          199          164          724
# mem [GB]  :          0.92         0.06         0.05         0.12 
#
###################################################################
mpirun: INFO: switching to OpenMPI runtime version 1.6.3
m 1000 n 1000 k 1000
Minimum time was 0.027774
mult_replicated:     passed
##IPM2v0.xx########################################################
#
# command   : ./ass1 1000 1000 1000     
# start     : Tue Apr 07 00:07:22 2015   host      : r911            
# stop      : Tue Apr 07 00:07:24 2015   wallclock : 1.85
# mpi_tasks : 16 on 1 nodes              %comm     : 20.67
# mem [GB]  : 0.50                       gflop/sec : 0.00
#
#           :       [total]        <avg>          min          max
# wallclock :         27.66         1.73         1.68         1.85 
# MPI       :          5.72         0.36         0.29         0.37 
# %wall     :
#   MPI     :                      20.69        15.65        21.46 
# #calls    :
#   MPI     :          3184          199          164          724
# mem [GB]  :          0.50         0.03         0.03         0.06 
#
###################################################################
###################################################################
# region    :'ipm_noregion'
#           :       [total]        <avg>          min          max
# wallclock :         27.66         1.73         1.68         1.85 
# MPI       :          5.72         0.36         0.29         0.37 
# %wall     :
#   MPI     :                      20.69        15.65        21.46 
# #calls    :
#   MPI     :          3184          199          164          724
# mem [GB]  :          0.50         0.03         0.03         0.06 
#
###################################################################
mpirun: INFO: switching to OpenMPI runtime version 1.6.3
m 4000 n 1000 k 4000
Minimum time was 0.349277
mult_replicated:     passed
##IPM2v0.xx########################################################
#
# command   : ./ass1 4000 1000 4000     
# start     : Tue Apr 07 00:07:24 2015   host      : r911            
# stop      : Tue Apr 07 00:07:34 2015   wallclock : 9.78
# mpi_tasks : 16 on 1 nodes              %comm     : 45.52
# mem [GB]  : 2.49                       gflop/sec : 0.00
#
#           :       [total]        <avg>          min          max
# wallclock :        134.07         8.38         8.25         9.78 
# MPI       :         61.03         3.81         2.71         3.94 
# %wall     :
#   MPI     :                      45.72        27.75        47.46 
# #calls    :
#   MPI     :          3184          199          164          724
# mem [GB]  :          2.49         0.16         0.14         0.33 
#
###################################################################
###################################################################
# region    :'ipm_noregion'
#           :       [total]        <avg>          min          max
# wallclock :        134.07         8.38         8.25         9.78 
# MPI       :         61.03         3.81         2.71         3.94 
# %wall     :
#   MPI     :                      45.72        27.75        47.46 
# #calls    :
#   MPI     :          3184          199          164          724
# mem [GB]  :          2.49         0.16         0.14         0.33 
#
###################################################################
mpirun: INFO: switching to OpenMPI runtime version 1.6.3
m 1000 n 4000 k 4000
Minimum time was 0.222705
mult_replicated:     passed
##IPM2v0.xx########################################################
#
# command   : ./ass1 1000 4000 4000     
# start     : Tue Apr 07 00:07:35 2015   host      : r911            
# stop      : Tue Apr 07 00:07:42 2015   wallclock : 7.25
# mpi_tasks : 16 on 1 nodes              %comm     : 39.09
# mem [GB]  : 1.15                       gflop/sec : 0.00
#
#           :       [total]        <avg>          min          max
# wallclock :         93.30         5.83         5.70         7.25 
# MPI       :         36.48         2.28         1.95         2.38 
# %wall     :
#   MPI     :                      39.29        26.96        41.26 
# #calls    :
#   MPI     :          3184          199          164          724
# mem [GB]  :          1.15         0.07         0.06         0.24 
#
###################################################################
###################################################################
# region    :'ipm_noregion'
#           :       [total]        <avg>          min          max
# wallclock :         93.30         5.83         5.70         7.25 
# MPI       :         36.48         2.28         1.95         2.38 
# %wall     :
#   MPI     :                      39.29        26.96        41.26 
# #calls    :
#   MPI     :          3184          199          164          724
# mem [GB]  :          1.15         0.07         0.06         0.24 
#
###################################################################
mpirun: INFO: switching to OpenMPI runtime version 1.6.3
m 40 n 4000 k 1000
Minimum time was 0.018340
mult_replicated:     passed
##IPM2v0.xx########################################################
#
# command   : ./ass1 40 4000 1000       
# start     : Tue Apr 07 00:07:43 2015   host      : r911            
# stop      : Tue Apr 07 00:07:44 2015   wallclock : 1.58
# mpi_tasks : 16 on 1 nodes              %comm     : 23.41
# mem [GB]  : 0.40                       gflop/sec : 0.00
#
#           :       [total]        <avg>          min          max
# wallclock :         24.48         1.53         1.49         1.58 
# MPI       :          5.73         0.36         0.33         0.36 
# %wall     :
#   MPI     :                      23.41        20.72        24.05 
# #calls    :
#   MPI     :          3184          199          164          724
# mem [GB]  :          0.40         0.03         0.02         0.06 
#
###################################################################
###################################################################
# region    :'ipm_noregion'
#           :       [total]        <avg>          min          max
# wallclock :         24.48         1.53         1.49         1.58 
# MPI       :          5.73         0.36         0.33         0.36 
# %wall     :
#   MPI     :                      23.41        20.72        24.05 
# #calls    :
#   MPI     :          3184          199          164          724
# mem [GB]  :          0.40         0.03         0.02         0.06 
#
###################################################################
r911
r911
r911
r911
r911
r911
r911
r911
r911
r911
r911
r911
r911
r911
r911
r911
r912
r912
r912
r912
r912
r912
r912
r912
r912
r912
r912
r912
r912
r912
r912
r912
======================================================================================
			Resource Usage on 2015-04-07 00:07:52.522534:
	JobId:  9996369.r-man2  
	Project: c07 
	Exit Status: 0 (Linux Signal 0)
	Service Units: 0.28
	NCPUs Requested: 32				NCPUs Used: 32
							CPU Time Used: 00:00:00
	Memory Requested: 32000mb 			Memory Used: 0mb
							Vmem Used: 0mb
	Walltime requested: 00:30:00 			Walltime Used: 00:00:32
	jobfs request: 200mb				jobfs used: 2mb
======================================================================================
